D:\COURS_S5\PROG\mymmo\mymmo-api\src\main\java\org\komi\mymmo\controllers\BienImmobilierController.java
D:\COURS_S5\PROG\mymmo\mymmo-api\src\main\java\org\komi\mymmo\configuration\SecurityConfiguration.java
D:\COURS_S5\PROG\mymmo\mymmo-api\src\main\java\org\komi\mymmo\configuration\SpringSecurityConfiguration.java
D:\COURS_S5\PROG\mymmo\mymmo-api\src\main\java\org\komi\mymmo\entities\User.java
D:\COURS_S5\PROG\mymmo\mymmo-api\src\main\java\org\komi\mymmo\entities\BienImmobilier.java
D:\COURS_S5\PROG\mymmo\mymmo-api\src\main\java\org\komi\mymmo\controllers\AuthenticationController.java
D:\COURS_S5\PROG\mymmo\mymmo-api\src\main\java\org\komi\mymmo\repositories\TypeBienImmobilierRepository.java
D:\COURS_S5\PROG\mymmo\mymmo-api\src\main\java\org\komi\mymmo\utils\ExceptionUtil.java
D:\COURS_S5\PROG\mymmo\mymmo-api\src\main\java\org\komi\mymmo\services\UserService.java
D:\COURS_S5\PROG\mymmo\mymmo-api\src\main\java\org\komi\mymmo\repositories\BienImmobilierRepository.java
D:\COURS_S5\PROG\mymmo\mymmo-api\src\main\java\org\komi\mymmo\repositories\CountryRepository.java
D:\COURS_S5\PROG\mymmo\mymmo-api\src\main\java\org\komi\mymmo\repositories\UserRepository.java
D:\COURS_S5\PROG\mymmo\mymmo-api\src\main\java\org\komi\mymmo\configuration\JwtUtil.java
D:\COURS_S5\PROG\mymmo\mymmo-api\src\main\java\org\komi\mymmo\entities\TypeBienImmobilier.java
D:\COURS_S5\PROG\mymmo\mymmo-api\src\main\java\org\komi\mymmo\controllers\UserController.java
D:\COURS_S5\PROG\mymmo\mymmo-api\src\main\java\org\komi\mymmo\services\BienImmobilierService.java
D:\COURS_S5\PROG\mymmo\mymmo-api\src\main\java\org\komi\mymmo\models\BienImmo.java
D:\COURS_S5\PROG\mymmo\mymmo-api\src\main\java\org\komi\mymmo\App.java
D:\COURS_S5\PROG\mymmo\mymmo-api\src\main\java\org\komi\mymmo\entities\Currency.java
D:\COURS_S5\PROG\mymmo\mymmo-api\src\main\java\org\komi\mymmo\entities\Country.java
D:\COURS_S5\PROG\mymmo\mymmo-api\src\main\java\org\komi\mymmo\models\ResponseObject.java
D:\COURS_S5\PROG\mymmo\mymmo-api\src\main\java\org\komi\mymmo\models\SignObject.java
